10/10/05
10/10/06
10/10/07
10/10/08
10/10/09
10/10/11
10/10/12
10/1/03
10/1/06
10/1/07
10/1/08
10/1/09
10/11/05
10/11/06
10/11/07
10/11/08
10/1/11
10/11/10
10/11/11
10/11/12
10/12/06
10/12/07
10/12/09
10/12/10
10/12/11
10/12/12
10/13/03
10/13/06
10/13/07
10/13/09
10/13/10
10/13/11
10/13/12
10/14/05
10/14/06
10/14/08
10/14/09
10/14/10
10/14/11
10/15/03
10/15/06
10/15/07
10/15/08
10/15/10
10/15/11
10/15/12
10/16/06
10/16/07
10/16/08
10/16/09
10/16/10
10/16/12
10/17/05
10/17/06
10/17/07
10/17/08
10/17/10
10/17/11
10/17/12
10/18/06
10/18/07
10/18/09
10/18/10
10/18/11
10/18/12
10/19/06
10/19/08
10/19/10
10/19/11
10/19/12
10/20/06
10/20/07
10/20/08
10/20/09
10/20/10
10/20/12
10/2/06
10/2/07
10/2/08
10/2/09
10/2/10
10/21/06
10/21/07
10/21/08
10/21/09
10/21/10
10/21/11
10/21/12
10/22/08
10/22/09
10/22/10
10/22/11
10/22/12
10/23/06
10/23/07
10/23/08
10/23/09
10/23/10
10/24/03
10/24/05
10/24/06
10/24/07
10/24/08
10/24/09
10/24/11
10/24/12
10/25/04
10/25/06
10/25/07
10/25/08
10/25/10
10/25/11
10/26/04
10/26/05
10/26/06
10/26/07
10/26/08
10/26/09
10/26/10
10/26/11
10/26/12
10/27/04
10/27/06
10/27/07
10/27/08
10/27/09
10/27/10
10/27/11
10/27/12
10/28/06
10/28/08
10/28/09
10/28/10
10/28/11
10/29/03
10/29/06
10/29/07
10/29/08
10/29/09
10/29/10
10/29/12
10/30/06
10/30/07
10/30/08
10/30/09
10/30/10
10/30/12
10/3/03
10/3/06
10/3/07
10/3/08
10/3/09
10/31/07
10/31/08
10/31/09
10/3/11
10/31/11
10/31/12
10/3/12
10/4/04
10/4/06
10/4/07
10/4/10
10/4/11
10/4/12
10/5/06
10/5/07
10/5/09
10/5/10
10/5/11
10/5/12
10/6/06
10/6/07
10/6/08
10/6/09
10/6/11
10/6/12
10/7/05
10/7/06
10/7/07
10/7/08
10/7/09
10/7/10
10/7/11
10/8/05
10/8/06
10/8/07
10/8/08
10/8/10
10/8/12
10/9/05
10/9/06
10/9/07
10/9/08
10/9/09
1/10/06
1/10/07
1/10/08
1/10/09
1/10/11
1/10/12
1/10/13
1/1/07
1/1/08
11/10/03
11/10/06
11/10/07
11/10/08
11/10/09
11/10/10
11/10/12
1/11/05
11/1/05
1/11/06
11/1/06
1/11/07
11/1/07
1/11/08
11/1/08
1/11/09
1/11/10
11/1/10
11/11/04
11/11/05
11/11/06
11/11/07
11/11/08
11/11/09
1/11/11
11/1/11
11/11/10
11/11/12
11/1/12
1/1/12
11/12/06
11/12/07
11/12/08
11/12/09
11/12/10
11/12/11
11/12/12
1/1/13
11/13/06
11/13/07
11/13/08
11/13/09
11/13/10
11/13/11
11/13/12
11/14/05
11/14/06
11/14/07
11/14/08
11/14/09
11/14/11
11/14/12
11/15/06
11/15/07
11/15/08
11/15/10
11/15/12
11/16/06
11/16/07
11/16/09
11/16/10
11/16/11
11/16/12
11/17/03
11/17/05
11/17/06
11/17/07
11/17/08
11/17/09
11/17/10
11/17/12
11/18/06
11/18/07
11/18/08
11/18/09
11/18/10
11/18/11
11/19/07
11/19/08
11/19/09
11/19/10
11/19/11
11/19/12
11/20/03
11/20/06
11/20/07
11/20/10
11/20/12
11/2/06
1/12/07
11/2/07
1/12/08
1/12/09
11/2/09
1/12/10
11/2/10
11/21/03
11/21/05
11/21/06
11/21/07
11/21/08
11/21/09
1/12/11
11/2/11
11/21/11
1/12/12
11/2/12
11/22/05
11/22/06
11/22/09
11/22/10
11/22/11
11/23/07
11/23/09
11/23/10
11/23/12
11/24/06
11/24/07
11/24/08
11/24/09
11/24/10
11/24/11
11/25/06
11/25/08
11/25/09
11/25/11
11/26/06
11/26/07
11/26/08
11/26/10
11/26/12
11/27/06
11/27/07
11/27/09
11/27/10
11/27/11
11/28/05
11/28/06
11/28/07
11/28/08
11/28/09
11/28/12
11/29/05
11/29/06
11/29/07
11/29/08
11/29/10
11/29/11
11/29/12
11/30/05
11/30/06
11/30/07
11/30/09
11/30/10
11/30/11
11/30/12
11/3/03
1/13/05
11/3/06
1/13/07
11/3/07
1/13/08
11/3/08
1/13/09
11/3/09
11/3/10
1/13/11
11/3/11
1/13/12
11/3/12
1/13/13
11/4/06
1/14/08
11/4/08
1/14/09
11/4/09
1/14/10
11/4/10
1/14/11
11/4/11
1/14/12
1/14/13
11/5/06
1/15/07
11/5/07
1/15/08
11/5/08
1/15/09
11/5/09
1/15/10
11/5/10
1/15/11
1/15/12
11/5/12
1/15/13
11/6/03
11/6/05
11/6/06
1/16/07
11/6/07
1/16/08
11/6/08
11/6/09
11/6/10
1/16/13
11/7/03
11/7/05
1/17/06
11/7/06
1/17/07
11/7/07
1/17/08
11/7/08
1/17/09
11/7/09
1/17/10
11/7/10
11/7/11
1/17/12
1/17/13
11/8/05
11/8/06
1/18/07
11/8/07
1/18/08
1/18/09
11/8/09
1/18/10
11/8/10
1/18/11
11/8/11
1/18/12
1/18/13
1/19/04
11/9/06
1/19/07
1/19/08
11/9/08
11/9/09
1/19/10
11/9/10
1/19/11
11/9/11
1/19/12
1/19/13
1/20/07
1/20/08
1/20/09
1/20/10
1/20/12
1/20/13
1/2/04
1/2/07
1/2/08
1/2/09
1/2/10
12/10/05
12/10/06
12/10/07
12/10/08
12/10/09
12/10/10
12/10/12
1/21/06
12/1/06
1/21/07
12/1/07
1/21/08
12/1/08
1/21/09
12/1/09
1/21/10
12/1/10
12/11/06
12/11/07
12/11/08
12/11/09
12/1/11
12/11/11
12/11/12
12/12/05
12/12/06
12/12/07
12/12/08
12/12/09
12/12/11
12/12/12
1/2/13
12/13/06
12/13/07
12/13/08
12/13/10
12/13/11
12/13/12
12/14/06
12/14/07
12/14/08
12/14/09
12/14/10
12/14/11
12/14/12
12/15/04
12/15/05
12/15/06
12/15/07
12/15/09
12/15/10
12/15/11
12/15/12
12/16/03
12/16/04
12/16/05
12/16/06
12/16/07
12/16/10
12/16/11
12/16/12
12/17/03
12/17/06
12/17/07
12/17/08
12/17/09
12/17/10
12/17/11
12/17/12
12/18/06
12/18/07
12/18/08
12/18/09
12/18/10
12/18/11
12/18/12
12/19/06
12/19/07
12/19/08
12/19/09
12/19/10
12/19/11
12/19/12
12/20/05
12/20/06
12/20/07
12/20/08
12/20/10
12/20/11
12/20/12
12/2/06
1/22/07
1/22/08
12/2/08
1/22/09
12/2/09
1/22/10
12/2/10
12/21/06
12/21/07
12/21/08
12/21/09
12/2/11
12/21/10
12/21/11
12/21/12
1/22/12
12/2/12
1/22/13
12/22/06
12/22/07
12/22/08
12/22/09
12/22/10
12/22/11
12/22/12
12/23/05
12/23/06
12/23/08
12/23/09
12/23/11
12/24/06
12/24/07
12/24/08
12/24/09
12/24/10
12/24/11
12/24/12
12/25/12
12/26/05
12/26/06
12/26/07
12/26/08
12/26/09
12/26/10
12/26/11
12/26/12
12/27/06
12/27/07
12/27/08
12/27/09
12/27/10
12/27/11
12/27/12
12/28/06
12/28/07
12/28/08
12/28/09
12/28/10
12/28/11
12/28/12
12/29/03
12/29/06
12/29/07
12/29/08
12/29/09
12/29/10
12/29/11
12/29/12
12/30/06
12/30/07
12/30/09
12/30/10
12/30/11
12/3/03
1/23/04
1/23/07
12/3/07
1/23/08
12/3/08
1/23/09
12/3/09
1/23/10
12/3/10
12/31/05
12/31/06
12/31/07
12/31/08
12/31/09
12/3/11
12/31/10
12/31/12
1/23/12
1/24/06
12/4/06
1/24/07
12/4/07
1/24/08
12/4/08
1/24/09
12/4/09
12/4/10
1/24/11
12/4/11
1/24/12
1/24/13
12/5/03
12/5/05
12/5/06
1/25/07
12/5/07
1/25/08
12/5/08
1/25/09
12/5/09
1/25/10
1/25/11
12/5/11
12/5/12
1/25/13
12/6/04
12/6/06
1/26/07
12/6/07
1/26/08
1/26/09
1/26/10
12/6/10
1/26/11
12/6/11
1/26/12
1/27/06
12/7/06
1/27/07
12/7/07
12/7/08
1/27/09
12/7/09
1/27/10
12/7/10
1/27/11
12/7/11
1/27/12
12/7/12
1/27/13
12/8/06
12/8/07
1/28/08
12/8/08
1/28/09
12/8/09
1/28/10
12/8/10
1/28/11
12/8/11
1/28/12
12/8/12
1/28/13
12/9/06
1/29/07
1/29/08
12/9/08
1/29/09
12/9/09
1/29/10
12/9/10
1/29/11
12/9/11
12/9/12
1/30/06
1/30/07
1/30/08
1/30/09
1/30/10
1/30/11
1/30/12
1/30/13
1/3/06
1/3/07
1/3/08
1/3/09
1/31/06
1/31/07
1/31/08
1/31/09
1/3/11
1/31/10
1/31/11
1/31/12
1/31/13
1/3/12
1/3/13
1/4/06
1/4/07
1/4/08
1/4/10
1/4/11
1/4/12
1/4/13
1/5/04
1/5/09
1/5/10
1/5/11
1/5/12
1/5/13
1/6/06
1/6/07
1/6/08
1/6/09
1/6/10
1/6/11
1/6/12
1/7/06
1/7/07
1/7/09
1/7/10
1/7/11
1/7/13
1/8/08
1/8/09
1/8/10
1/8/11
1/8/13
1/9/08
1/9/09
1/9/10
1/9/11
1/9/12
2/10/07
2/10/09
2/10/11
2/10/13
2/1/07
2/1/08
2/1/09
2/1/10
2/11/05
2/11/06
2/11/07
2/11/08
2/11/09
2/11/10
2/11/11
2/11/12
2/11/13
2/1/12
2/1/13
2/12/07
2/12/08
2/12/09
2/12/10
2/12/11
2/12/13
2/13/06
2/13/07
2/13/08
2/13/09
2/13/10
2/13/11
2/13/12
2/13/13
2/14/07
2/14/08
2/14/09
2/14/10
2/14/11
2/14/13
2/15/06
2/15/07
2/15/08
2/15/10
2/15/13
2/16/06
2/16/07
2/16/08
2/16/09
2/16/10
2/16/12
2/17/04
2/17/06
2/17/07
2/17/08
2/17/09
2/17/11
2/17/12
2/17/13
2/18/07
2/18/08
2/18/10
2/18/11
2/18/12
2/18/13
2/19/07
2/19/08
2/19/10
2/19/11
2/20/04
2/20/07
2/20/08
2/20/09
2/20/10
2/20/12
2/20/13
2/2/06
2/2/07
2/2/08
2/2/09
2/2/10
2/21/06
2/21/07
2/21/09
2/21/11
2/21/12
2/21/13
2/2/12
2/2/13
2/22/07
2/22/08
2/22/10
2/22/11
2/22/12
2/22/13
2/23/04
2/23/06
2/23/07
2/23/08
2/23/09
2/23/10
2/23/11
2/23/13
2/24/04
2/24/06
2/24/07
2/24/08
2/24/09
2/24/10
2/24/11
2/24/12
2/24/13
2/25/08
2/25/09
2/25/10
2/25/11
2/25/12
2/25/13
2/26/07
2/26/08
2/26/10
2/26/11
2/26/13
2/27/07
2/27/08
2/27/09
2/27/10
2/27/12
2/27/13
2/28/05
2/28/07
2/28/08
2/28/09
2/28/10
2/28/11
2/28/12
2/28/13
2/29/08
2/29/12
2/3/06
2/3/07
2/3/08
2/3/09
2/3/10
2/3/11
2/3/12
2/3/13
2/4/08
2/4/10
2/4/12
2/4/13
2/5/07
2/5/08
2/5/09
2/5/10
2/5/11
2/5/13
2/6/07
2/6/08
2/6/09
2/6/11
2/7/06
2/7/07
2/7/08
2/7/09
2/7/11
2/7/12
2/7/13
2/8/06
2/8/07
2/8/08
2/8/10
2/8/11
2/8/12
2/8/13
2/9/07
2/9/08
2/9/09
2/9/10
2/9/11
2/9/13
3/10/06
3/10/07
3/10/08
3/10/09
3/10/11
3/10/12
3/10/13
3/1/07
3/1/08
3/1/10
3/11/05
3/11/07
3/11/08
3/11/09
3/1/11
3/11/10
3/11/13
3/1/12
3/1/13
3/12/07
3/12/08
3/12/09
3/12/12
3/12/13
3/13/06
3/13/07
3/13/11
3/13/12
3/13/13
3/14/07
3/14/08
3/14/09
3/14/11
3/14/12
3/15/06
3/15/07
3/15/08
3/15/10
3/15/11
3/15/12
3/15/13
3/16/06
3/16/07
3/16/09
3/16/12
3/16/13
3/17/06
3/17/07
3/17/08
3/17/09
3/17/10
3/18/05
3/18/07
3/18/08
3/18/09
3/18/10
3/18/11
3/18/12
3/18/13
3/19/07
3/19/08
3/19/09
3/19/10
3/19/11
3/19/12
3/20/06
3/20/07
3/20/09
3/20/10
3/20/12
3/20/13
3/2/04
3/2/07
3/2/09
3/2/10
3/21/07
3/21/08
3/2/11
3/21/11
3/21/12
3/21/13
3/2/12
3/2/13
3/22/04
3/22/07
3/22/10
3/22/11
3/22/12
3/22/13
3/23/07
3/23/08
3/23/09
3/23/10
3/23/11
3/23/12
3/23/13
3/24/06
3/24/07
3/24/08
3/24/09
3/24/10
3/24/11
3/24/12
3/25/08
3/25/09
3/25/10
3/25/11
3/25/12
3/25/13
3/26/06
3/26/07
3/26/08
3/26/09
3/26/12
3/26/13
3/27/03
3/27/07
3/27/08
3/27/09
3/27/10
3/27/11
3/27/12
3/27/13
3/28/03
3/28/06
3/28/07
3/28/08
3/28/10
3/28/11
3/28/12
3/28/13
3/29/06
3/29/07
3/29/08
3/29/10
3/29/12
3/29/13
3/30/07
3/30/08
3/30/09
3/30/10
3/30/11
3/30/12
3/3/04
3/3/06
3/3/07
3/3/08
3/3/09
3/3/10
3/31/06
3/31/07
3/31/08
3/31/09
3/3/11
3/31/10
3/31/11
3/31/12
3/3/12
3/3/13
3/4/07
3/4/08
3/4/09
3/4/10
3/4/11
3/4/12
3/4/13
3/5/04
3/5/06
3/5/07
3/5/08
3/5/09
3/5/10
3/5/11
3/5/12
3/5/13
3/6/06
3/6/07
3/6/08
3/6/09
3/6/11
3/6/13
3/7/05
3/7/06
3/7/07
3/7/08
3/7/09
3/7/10
3/7/11
3/7/12
3/7/13
3/8/07
3/8/08
3/8/10
3/8/11
3/8/12
3/9/06
3/9/07
3/9/08
3/9/09
3/9/10
3/9/11
3/9/12
3/9/13
4/10/07
4/10/08
4/10/09
4/10/10
4/10/11
4/10/12
4/1/06
4/1/08
4/1/09
4/1/10
4/11/05
4/11/06
4/11/07
4/11/08
4/1/11
4/11/10
4/11/11
4/11/12
4/1/12
4/12/04
4/12/06
4/12/07
4/12/08
4/12/11
4/12/12
4/13/06
4/13/07
4/13/09
4/13/10
4/13/11
4/13/12
4/14/04
4/14/06
4/14/07
4/14/08
4/14/09
4/14/10
4/14/11
4/15/04
4/15/07
4/15/08
4/15/09
4/15/10
4/15/11
4/16/06
4/16/07
4/16/08
4/16/09
4/16/10
4/16/11
4/16/12
4/17/06
4/17/07
4/17/08
4/17/09
4/17/10
4/17/11
4/17/12
4/18/03
4/18/06
4/18/07
4/18/08
4/18/10
4/18/11
4/18/12
4/19/06
4/19/07
4/19/08
4/19/10
4/19/12
4/19/13
4/20/06
4/20/07
4/20/09
4/20/10
4/20/11
4/2/04
4/2/07
4/2/08
4/2/09
4/2/10
4/21/03
4/21/04
4/21/07
4/21/08
4/21/09
4/21/10
4/21/11
4/21/12
4/2/12
4/22/04
4/22/07
4/22/08
4/22/09
4/22/10
4/22/11
4/23/07
4/23/08
4/23/09
4/23/10
4/23/11
4/23/12
4/24/06
4/24/07
4/24/08
4/24/09
4/24/10
4/24/12
4/25/06
4/25/07
4/25/08
4/25/11
4/25/12
4/26/05
4/26/06
4/26/07
4/26/08
4/26/09
4/26/10
4/26/11
4/27/06
4/27/07
4/27/08
4/27/09
4/27/10
4/27/11
4/27/12
4/28/06
4/28/07
4/28/08
4/28/09
4/28/10
4/28/11
4/28/12
4/29/04
4/29/07
4/29/08
4/29/10
4/29/12
4/30/03
4/30/04
4/30/07
4/30/08
4/30/09
4/30/10
4/30/12
4/3/06
4/3/07
4/3/08
4/3/09
4/3/10
4/4/03
4/4/06
4/4/07
4/4/08
4/4/09
4/4/11
4/4/12
4/4/13
4/5/04
4/5/05
4/5/06
4/5/07
4/5/08
4/5/10
4/5/11
4/5/12
4/6/05
4/6/06
4/6/07
4/6/08
4/6/09
4/6/10
4/6/11
4/6/12
4/7/03
4/7/06
4/7/07
4/7/08
4/7/10
4/8/04
4/8/06
4/8/08
4/8/10
4/8/11
4/8/13
4/9/06
4/9/07
4/9/08
4/9/09
4/9/10
4/9/11
4/9/12
5/10/06
5/10/07
5/10/11
5/10/12
5/1/06
5/1/07
5/1/08
5/1/09
5/1/10
5/11/05
5/11/06
5/11/07
5/11/08
5/11/09
5/1/11
5/11/10
5/11/12
5/1/12
5/12/03
5/12/06
5/12/07
5/12/08
5/12/09
5/12/10
5/12/11
5/12/12
5/13/05
5/13/06
5/13/08
5/13/09
5/13/10
5/13/11
5/13/12
5/14/06
5/14/07
5/14/08
5/14/09
5/14/10
5/14/11
5/14/12
5/15/06
5/15/07
5/15/08
5/15/09
5/15/10
5/15/11
5/15/12
5/16/03
5/16/05
5/16/06
5/16/07
5/16/08
5/16/09
5/16/10
5/16/11
5/16/12
5/17/05
5/17/06
5/17/07
5/17/08
5/17/09
5/17/10
5/17/12
5/18/05
5/18/06
5/18/07
5/18/08
5/18/09
5/18/10
5/18/12
5/19/03
5/19/04
5/19/06
5/19/07
5/19/08
5/19/09
5/19/11
5/19/12
5/20/03
5/20/06
5/20/07
5/20/11
5/20/12
5/2/03
5/2/06
5/2/07
5/2/08
5/2/10
5/21/06
5/21/07
5/21/08
5/2/11
5/21/11
5/21/12
5/2/12
5/22/06
5/22/07
5/22/08
5/22/09
5/22/10
5/22/11
5/23/05
5/23/06
5/23/07
5/23/08
5/23/09
5/23/10
5/23/11
5/24/06
5/24/07
5/24/08
5/24/09
5/24/10
5/24/11
5/24/12
5/25/06
5/25/07
5/25/08
5/25/09
5/25/10
5/25/11
5/25/12
5/26/06
5/26/07
5/26/08
5/26/09
5/26/10
5/26/11
5/26/12
5/27/03
5/27/05
5/27/06
5/27/07
5/27/08
5/27/09
5/27/10
5/27/11
5/27/12
5/28/06
5/28/07
5/28/08
5/28/09
5/28/10
5/28/12
5/29/07
5/29/08
5/29/09
5/29/10
5/29/11
5/29/12
5/30/03
5/30/05
5/30/06
5/30/08
5/30/09
5/30/10
5/3/06
5/3/07
5/3/08
5/3/10
5/31/06
5/31/08
5/31/10
5/31/12
5/3/12
5/4/06
5/4/07
5/4/08
5/4/09
5/4/10
5/4/11
5/5/03
5/5/05
5/5/06
5/5/07
5/5/08
5/5/09
5/5/10
5/5/12
5/6/06
5/6/07
5/6/08
5/6/09
5/6/10
5/6/11
5/7/07
5/7/08
5/7/09
5/7/10
5/7/12
5/8/05
5/8/06
5/8/07
5/8/08
5/8/09
5/8/10
5/8/11
5/8/12
5/9/06
5/9/07
5/9/08
5/9/09
5/9/11
5/9/12
6/10/06
6/10/08
6/10/09
6/10/10
6/10/11
6/10/12
6/1/05
6/1/06
6/1/09
6/1/10
6/11/05
6/11/06
6/11/08
6/11/09
6/1/11
6/11/10
6/11/11
6/11/12
6/1/12
6/12/06
6/12/08
6/12/09
6/12/10
6/12/11
6/12/12
6/13/05
6/13/06
6/13/07
6/13/08
6/13/09
6/13/10
6/13/11
6/14/04
6/14/06
6/14/07
6/14/09
6/14/10
6/14/11
6/14/12
6/15/06
6/15/07
6/15/08
6/15/09
6/15/10
6/15/11
6/15/12
6/16/03
6/16/05
6/16/06
6/16/07
6/16/08
6/16/09
6/16/10
6/16/11
6/16/12
6/17/04
6/17/05
6/17/06
6/17/08
6/17/09
6/17/10
6/17/11
6/18/06
6/18/07
6/18/08
6/18/09
6/18/10
6/18/11
6/18/12
6/19/03
6/19/06
6/19/07
6/19/09
6/19/10
6/19/11
6/19/12
6/20/06
6/20/07
6/20/08
6/20/09
6/20/10
6/20/11
6/2/03
6/2/05
6/2/06
6/2/08
6/2/09
6/2/10
6/21/05
6/21/06
6/21/07
6/21/09
6/2/11
6/21/10
6/21/12
6/2/12
6/22/05
6/22/06
6/22/07
6/22/08
6/22/09
6/22/10
6/22/11
6/22/12
6/23/06
6/23/07
6/23/08
6/23/09
6/23/10
6/23/11
6/23/12
6/24/03
6/24/06
6/24/07
6/24/08
6/24/09
6/24/10
6/24/11
6/24/12
6/25/04
6/25/06
6/25/08
6/25/09
6/25/10
6/25/11
6/25/12
6/26/06
6/26/07
6/26/08
6/26/10
6/26/12
6/27/05
6/27/06
6/27/07
6/27/08
6/27/11
6/27/12
6/28/06
6/28/07
6/28/09
6/28/10
6/28/12
6/29/06
6/29/07
6/29/08
6/29/09
6/29/10
6/29/11
6/29/12
6/30/06
6/30/07
6/30/08
6/30/09
6/30/10
6/30/11
6/30/12
6/3/06
6/3/08
6/3/09
6/3/10
6/3/11
6/3/12
6/4/03
6/4/05
6/4/06
6/4/08
6/4/09
6/4/11
6/4/12
6/5/06
6/5/08
6/5/10
6/5/11
6/5/12
6/6/03
6/6/05
6/6/06
6/6/08
6/6/09
6/6/11
6/6/12
6/7/06
6/7/08
6/7/10
6/7/11
6/7/12
6/8/05
6/8/06
6/8/08
6/8/10
6/8/11
6/9/03
6/9/05
6/9/06
6/9/08
6/9/09
6/9/10
6/9/11
7/10/03
7/10/06
7/10/07
7/10/08
7/10/09
7/10/10
7/10/11
7/1/03
7/1/05
7/1/06
7/1/07
7/1/08
7/1/09
7/1/10
7/11/05
7/11/06
7/11/07
7/11/08
7/11/09
7/1/11
7/11/11
7/11/12
7/1/12
7/12/06
7/12/07
7/12/08
7/12/09
7/12/10
7/12/11
7/12/12
7/13/04
7/13/06
7/13/10
7/13/11
7/14/03
7/14/06
7/14/07
7/14/08
7/14/09
7/14/10
7/15/04
7/15/06
7/15/07
7/15/08
7/15/11
7/15/12
7/16/03
7/16/05
7/16/06
7/16/07
7/16/08
7/16/09
7/16/10
7/16/11
7/16/12
7/17/06
7/17/07
7/17/09
7/17/10
7/17/11
7/17/12
7/18/05
7/18/06
7/18/07
7/18/08
7/18/09
7/18/10
7/18/11
7/18/12
7/19/05
7/19/06
7/19/07
7/19/08
7/19/09
7/19/10
7/19/11
7/19/12
7/20/05
7/20/06
7/20/07
7/20/09
7/20/11
7/20/12
7/2/06
7/2/07
7/2/08
7/2/09
7/2/10
7/21/03
7/21/06
7/21/07
7/21/08
7/21/09
7/2/11
7/21/11
7/21/12
7/2/12
7/22/04
7/22/06
7/22/09
7/22/10
7/22/11
7/23/07
7/23/08
7/23/09
7/23/10
7/23/12
7/24/03
7/24/06
7/24/07
7/24/08
7/24/09
7/24/12
7/25/06
7/25/07
7/25/08
7/25/09
7/25/10
7/25/11
7/25/12
7/26/04
7/26/06
7/26/07
7/26/08
7/26/10
7/26/11
7/27/04
7/27/05
7/27/06
7/27/07
7/27/09
7/27/10
7/27/12
7/28/04
7/28/05
7/28/06
7/28/07
7/28/08
7/28/09
7/28/10
7/28/11
7/28/12
7/29/06
7/29/07
7/29/08
7/29/09
7/29/10
7/29/11
7/29/12
7/30/06
7/30/07
7/30/08
7/30/11
7/30/12
7/3/03
7/3/06
7/3/07
7/3/08
7/3/10
7/31/06
7/31/07
7/31/08
7/31/09
7/3/11
7/31/12
7/4/06
7/4/07
7/4/08
7/4/09
7/4/12
7/5/06
7/5/07
7/5/08
7/5/09
7/5/10
7/5/11
7/5/12
7/6/06
7/6/07
7/6/08
7/6/09
7/6/11
7/6/12
7/7/06
7/7/08
7/7/09
7/7/10
7/7/11
7/7/12
7/8/06
7/8/07
7/8/08
7/8/09
7/8/11
7/9/06
7/9/07
7/9/08
7/9/09
7/9/11
7/9/12
8/10/06
8/10/07
8/10/09
8/10/11
8/10/12
8/1/05
8/1/06
8/1/07
8/1/08
8/1/09
8/1/10
8/11/05
8/11/06
8/11/07
8/11/08
8/11/09
8/1/11
8/11/10
8/11/11
8/11/12
8/1/12
8/12/05
8/12/06
8/12/08
8/12/09
8/12/10
8/12/11
8/13/07
8/13/08
8/13/09
8/13/11
8/13/12
8/14/06
8/14/07
8/14/08
8/14/09
8/14/10
8/14/12
8/15/05
8/15/06
8/15/07
8/15/08
8/15/09
8/15/12
8/16/04
8/16/06
8/16/07
8/16/08
8/16/09
8/16/10
8/16/12
8/17/06
8/17/07
8/17/08
8/17/09
8/17/10
8/17/11
8/18/05
8/18/07
8/18/08
8/18/09
8/18/10
8/18/11
8/19/05
8/19/06
8/19/08
8/19/09
8/19/10
8/19/11
8/20/03
8/20/06
8/20/07
8/20/08
8/20/09
8/20/11
8/20/12
8/2/06
8/2/07
8/2/08
8/2/09
8/2/10
8/21/03
8/21/06
8/21/07
8/21/08
8/21/10
8/21/11
8/21/12
8/22/05
8/22/06
8/22/07
8/22/08
8/22/09
8/22/11
8/23/05
8/23/06
8/23/07
8/23/08
8/23/10
8/23/12
8/24/05
8/24/06
8/24/07
8/24/09
8/24/11
8/24/12
8/25/03
8/25/05
8/25/06
8/25/07
8/25/08
8/25/09
8/25/10
8/25/11
8/25/12
8/26/03
8/26/04
8/26/05
8/26/07
8/26/08
8/26/09
8/26/10
8/26/11
8/27/03
8/27/07
8/27/08
8/27/09
8/27/10
8/27/11
8/27/12
8/28/03
8/28/06
8/28/07
8/28/08
8/28/09
8/28/10
8/28/12
8/29/05
8/29/06
8/29/07
8/29/08
8/29/09
8/29/10
8/29/11
8/29/12
8/30/05
8/30/06
8/30/07
8/30/08
8/30/10
8/30/11
8/30/12
8/3/06
8/3/07
8/3/09
8/3/10
8/31/05
8/31/06
8/31/07
8/31/08
8/31/09
8/3/11
8/31/11
8/31/12
8/3/12
8/4/07
8/4/08
8/4/09
8/4/10
8/4/11
8/5/06
8/5/07
8/5/08
8/5/09
8/5/11
8/5/12
8/6/03
8/6/06
8/6/07
8/6/08
8/6/09
8/6/10
8/7/03
8/7/07
8/7/10
8/7/11
8/7/12
8/8/03
8/8/06
8/8/07
8/8/08
8/8/09
8/8/11
8/8/12
8/9/05
8/9/06
8/9/07
8/9/08
8/9/09
8/9/11
8/9/12
9/10/05
9/10/07
9/10/08
9/10/09
9/10/10
9/10/11
9/10/12
9/1/06
9/1/07
9/1/08
9/1/09
9/1/10
9/11/06
9/11/07
9/11/08
9/11/09
9/11/10
9/11/11
9/11/12
9/1/12
9/12/05
9/12/06
9/12/07
9/12/09
9/12/11
9/12/12
9/13/04
9/13/06
9/13/08
9/13/09
9/13/10
9/13/11
9/13/12
9/14/06
9/14/07
9/14/09
9/14/10
9/14/11
9/14/12
9/15/03
9/15/06
9/15/07
9/15/08
9/15/09
9/15/10
9/15/11
9/15/12
9/16/05
9/16/06
9/16/08
9/16/09
9/16/10
9/16/11
9/17/03
9/17/04
9/17/07
9/17/08
9/17/09
9/17/10
9/17/11
9/18/05
9/18/06
9/18/07
9/18/08
9/18/10
9/18/11
9/19/06
9/19/07
9/19/09
9/19/11
9/19/12
9/20/05
9/20/06
9/20/07
9/20/08
9/20/10
9/20/11
9/20/12
9/2/03
9/2/05
9/2/06
9/2/07
9/2/08
9/2/10
9/21/05
9/21/06
9/21/07
9/21/08
9/21/09
9/21/11
9/21/12
9/22/03
9/22/05
9/22/06
9/22/07
9/22/08
9/22/09
9/22/10
9/22/11
9/23/05
9/23/06
9/23/07
9/23/08
9/23/09
9/23/10
9/23/11
9/24/07
9/24/08
9/24/09
9/24/10
9/24/11
9/24/12
9/25/06
9/25/07
9/25/08
9/25/09
9/25/10
9/25/11
9/25/12
9/26/05
9/26/06
9/26/07
9/26/08
9/26/09
9/26/11
9/26/12
9/27/04
9/27/05
9/27/06
9/27/07
9/27/08
9/27/10
9/27/11
9/27/12
9/28/06
9/28/07
9/28/08
9/28/09
9/28/10
9/28/11
9/28/12
9/29/06
9/29/07
9/29/08
9/29/09
9/29/10
9/29/11
9/29/12
9/30/05
9/30/06
9/30/07
9/30/08
9/30/09
9/30/10
9/30/11
9/30/12
9/3/05
9/3/06
9/3/07
9/3/08
9/3/09
9/3/10
9/3/12
9/4/05
9/4/06
9/4/07
9/4/08
9/4/09
9/4/10
9/4/12
9/5/03
9/5/05
9/5/06
9/5/07
9/5/08
9/5/09
9/5/10
9/5/11
9/5/12
9/6/05
9/6/06
9/6/07
9/6/10
9/6/11
9/6/12
9/7/04
9/7/05
9/7/06
9/7/07
9/7/10
9/7/11
9/7/12
9/8/03
9/8/05
9/8/06
9/8/07
9/8/08
9/8/09
9/8/10
9/8/12
9/9/05
9/9/07
9/9/08
9/9/09
9/9/10
9/9/11
9/9/12