{
    "KPlugin": {
        "Authors": [
            {
                "Email": "stephane@mankowski.fr",
                "Name": "Stephane MANKOWSKI,miraks",
                "Name[ca@valencia]": "Stephane MANKOWSKI,miraks",
                "Name[ca]": "Stephane MANKOWSKI,miraks",
                "Name[en_GB]": "Stephane MANKOWSKI,miraks",
                "Name[es]": "Stephane MANKOWSKI,miraks",
                "Name[fi]": "Stephane MANKOWSKI,miraks",
                "Name[fr]": "Stephane MANKOWSKI, miraks",
                "Name[gl]": "Stephane MANKOWSKI, miraks",
                "Name[ia]": "Stephane MANKOWSKI,miraks",
                "Name[it]": "Stephane MANKOWSKI,miraks",
                "Name[ka]": "Stephane MANKOWSKI,miraks",
                "Name[nl]": "Stephane MANKOWSKI,miraks",
                "Name[pl]": "Stephane MANKOWSKI,miraks",
                "Name[pt]": "Stephane MANKOWSKI,miraks",
                "Name[ru]": "Stephane MANKOWSKI,miraks",
                "Name[sl]": "Stephane MANKOWSKI,miraks",
                "Name[sv]": "Stephane MANKOWSKI,miraks",
                "Name[tr]": "Stephane MANKOWSKI,miraks",
                "Name[uk]": "Stephane MANKOWSKI,miraks",
                "Name[x-test]": "xxStephane MANKOWSKI,miraksxx"
            }
        ],
        "Category": "Plugins",
        "Description": "A skrooge plugin to manage reports",
        "Description[ca@valencia]": "Un connector de Skrooge per a gestionar informes",
        "Description[ca]": "Un connector de l'Skrooge per a gestionar informes",
        "Description[cs]": "Modul Skrooge pro správu hlášení",
        "Description[en_GB]": "A skrooge plugin to manage reports",
        "Description[es]": "Complemento de Skrooge para la gestión de informes",
        "Description[fi]": "Skroogen raportinhallintaliitännäinen",
        "Description[fr]": "Un module externe de gestion de rapports pour Skrooge",
        "Description[gl]": "Un complemento de Skrooge para xestionar informes.",
        "Description[it]": "Un'estensione di Skrooge per gestire i rapporti",
        "Description[ka]": "Skrooge-ის დამატება ანგარიშების სამართავად",
        "Description[nl]": "Een skrooge-plugin voor het beheren van rapporten",
        "Description[pl]": "Wtyczka Skrooge do obsługi sprawozdań",
        "Description[pt]": "Um 'plugin' do Skrooge para gerir relatórios",
        "Description[ru]": "Модуль для управления отчётами",
        "Description[sl]": "Vtičnik Skrooge za upravljanje s poročili",
        "Description[sv]": "Ett insticksprogram till Skrooge för att hantera budgetar",
        "Description[tr]": "Raporları yönetmek için bir Varyemez eklentisi",
        "Description[uk]": "Додаток до skrooge для керування звітами",
        "Description[x-test]": "xxA skrooge plugin to manage reportsxx",
        "EnabledByDefault": true,
        "Icon": "skrooge",
        "Id": "skrooge_report",
        "License": "GPL",
        "Name": "Skrooge report plugin",
        "Name[bs]": "Skrooge dodatak za izvještaje",
        "Name[ca@valencia]": "Connector d'informe de Skrooge",
        "Name[ca]": "Connector d'informe de l'Skrooge",
        "Name[cs]": "Modul hlášení pro Skrooge",
        "Name[da]": "Rapport-plugin til Skrooge",
        "Name[de]": "Skrooge-Berichtmodul",
        "Name[el]": "Skrooge report plugin",
        "Name[en_GB]": "Skrooge report plugin",
        "Name[es]": "Complemento de informe de Skrooge",
        "Name[et]": "Skrooge aruandeplugin",
        "Name[fi]": "Skroogen raporttiliitännäinen",
        "Name[fr]": "Moteur externe Skrooge de rapport",
        "Name[gl]": "Complemento de informes de Skrooge",
        "Name[hu]": "Skrooge jelentés bővítmény",
        "Name[it]": "Estensione per rapporti di Skrooge",
        "Name[ka]": "Skrooge ანგარიშის დამატება",
        "Name[lt]": "Skrooge ataskaitos papildinys",
        "Name[nb]": "Skrooge rapportmoduls",
        "Name[nds]": "Berichtmoduul för Skrooge",
        "Name[nl]": "Plugin voor Skrooge-rapporteren",
        "Name[pl]": "Wtyczka sprawozdania dla Skrooge",
        "Name[pt]": "'Plugin' de relatórios do Skrooge",
        "Name[pt_BR]": "Plugin de relatório do Skrooge",
        "Name[ru]": "Модуль отчётов",
        "Name[sk]": "Plugin výkazov Skrooge",
        "Name[sl]": "Vtičnik Skrooge poročila",
        "Name[sv]": "Skrooge rapportinsticksprogram",
        "Name[tr]": "Varyemez rapor eklentisi",
        "Name[uk]": "Додаток звітів Skrooge",
        "Name[x-test]": "xxSkrooge report pluginxx",
        "Name[zh_TW]": "Skrooge 報表外掛程式。",
        "ServiceTypes": [
            "SKG GUI/Plugin"
        ],
        "Version": "1.0",
        "Website": "https://skrooge.org/"
    },
    "X-Krunner-ID": "Skrooge report plugin"
}
